/Users/Tommy_Creatine/working/ecse437/project1/ecse437core/ca.mcgill.sel.core.edit/src/ca/mcgill/sel/core/provider/CORELinkItemProvider.java
/Users/Tommy_Creatine/working/ecse437/project1/ecse437core/ca.mcgill.sel.core.edit/src/ca/mcgill/sel/core/provider/COREFeatureItemProvider.java
/Users/Tommy_Creatine/working/ecse437/project1/ecse437core/ca.mcgill.sel.core.edit/src/ca/mcgill/sel/core/provider/COREMappingItemProvider.java
/Users/Tommy_Creatine/working/ecse437/project1/ecse437core/ca.mcgill.sel.core.edit/src/ca/mcgill/sel/core/provider/COREModelExtensionItemProvider.java
/Users/Tommy_Creatine/working/ecse437/project1/ecse437core/ca.mcgill.sel.core.edit/src/ca/mcgill/sel/core/provider/COREImpactModelItemProvider.java
/Users/Tommy_Creatine/working/ecse437/project1/ecse437core/ca.mcgill.sel.core.edit/src/ca/mcgill/sel/core/provider/COREImpactNodeItemProvider.java
/Users/Tommy_Creatine/working/ecse437/project1/ecse437core/ca.mcgill.sel.core.edit/src/ca/mcgill/sel/core/provider/COREReuseItemProvider.java
/Users/Tommy_Creatine/working/ecse437/project1/ecse437core/ca.mcgill.sel.core.edit/src/ca/mcgill/sel/core/provider/COREContributionItemProvider.java
/Users/Tommy_Creatine/working/ecse437/project1/ecse437core/ca.mcgill.sel.core.edit/src/ca/mcgill/sel/core/provider/COREConcernItemProvider.java
/Users/Tommy_Creatine/working/ecse437/project1/ecse437core/ca.mcgill.sel.core.edit/src/ca/mcgill/sel/core/provider/COREReuseConfigurationItemProvider.java
/Users/Tommy_Creatine/working/ecse437/project1/ecse437core/ca.mcgill.sel.core.edit/src/ca/mcgill/sel/core/provider/CORENamedElementItemProvider.java
/Users/Tommy_Creatine/working/ecse437/project1/ecse437core/ca.mcgill.sel.core.edit/src/ca/mcgill/sel/core/provider/LayoutMapItemProvider.java
/Users/Tommy_Creatine/working/ecse437/project1/ecse437core/ca.mcgill.sel.core.edit/src/ca/mcgill/sel/core/provider/COREFeatureModelItemProvider.java
/Users/Tommy_Creatine/working/ecse437/project1/ecse437core/ca.mcgill.sel.core.edit/src/ca/mcgill/sel/core/provider/COREModelElementItemProvider.java
/Users/Tommy_Creatine/working/ecse437/project1/ecse437core/ca.mcgill.sel.core.edit/src/ca/mcgill/sel/core/provider/COREModelItemProvider.java
/Users/Tommy_Creatine/working/ecse437/project1/ecse437core/ca.mcgill.sel.core.edit/src/ca/mcgill/sel/core/provider/COREWeightedLinkItemProvider.java
/Users/Tommy_Creatine/working/ecse437/project1/ecse437core/ca.mcgill.sel.core.edit/src/ca/mcgill/sel/core/provider/CoreItemProviderAdapterFactory.java
/Users/Tommy_Creatine/working/ecse437/project1/ecse437core/ca.mcgill.sel.core.edit/src/ca/mcgill/sel/core/provider/COREModelElementCompositionItemProvider.java
/Users/Tommy_Creatine/working/ecse437/project1/ecse437core/ca.mcgill.sel.core.edit/src/ca/mcgill/sel/core/provider/CORERenamingItemProvider.java
/Users/Tommy_Creatine/working/ecse437/project1/ecse437core/ca.mcgill.sel.core.edit/src/ca/mcgill/sel/core/provider/LayoutContainerMapItemProvider.java
/Users/Tommy_Creatine/working/ecse437/project1/ecse437core/ca.mcgill.sel.core.edit/src/ca/mcgill/sel/core/provider/COREEditPlugin.java
/Users/Tommy_Creatine/working/ecse437/project1/ecse437core/ca.mcgill.sel.core.edit/src/ca/mcgill/sel/core/provider/COREModelCompositionItemProvider.java
/Users/Tommy_Creatine/working/ecse437/project1/ecse437core/ca.mcgill.sel.core.edit/src/ca/mcgill/sel/core/provider/COREPatternItemProvider.java
/Users/Tommy_Creatine/working/ecse437/project1/ecse437core/ca.mcgill.sel.core.edit/src/ca/mcgill/sel/core/provider/COREInterfaceItemProvider.java
/Users/Tommy_Creatine/working/ecse437/project1/ecse437core/ca.mcgill.sel.core.edit/src/ca/mcgill/sel/core/provider/LayoutElementItemProvider.java
/Users/Tommy_Creatine/working/ecse437/project1/ecse437core/ca.mcgill.sel.core.edit/src/ca/mcgill/sel/core/provider/COREModelReuseItemProvider.java
/Users/Tommy_Creatine/working/ecse437/project1/ecse437core/ca.mcgill.sel.core.edit/src/ca/mcgill/sel/core/provider/COREConcernConfigurationItemProvider.java
/Users/Tommy_Creatine/working/ecse437/project1/ecse437core/ca.mcgill.sel.core.edit/src/ca/mcgill/sel/core/provider/COREFeatureImpactNodeItemProvider.java
/Users/Tommy_Creatine/working/ecse437/project1/ecse437core/ca.mcgill.sel.core.edit/src/ca/mcgill/sel/core/provider/COREConfigurationItemProvider.java
